module snapChallenge

go 1.20

require (
	github.com/gin-gonic/gin v1.10.0
	github.com/go-gormigrate/gormigrate/v2 v2.1.2
	github.com/go-redis/redis/v8 v8.11.5
	github.com/go-resty/resty/v2 v2.13.1
	github.com/namsral/flag v1.7.4-pre
	github.com/rabbitmq/amqp091-go v1.10.0
	github.com/sirupsen/logrus v1.9.3
	gorm.io/driver/postgres v1.5.7
	gorm.io/gorm v1.25.10
)

require (
	github.com/bytedance/sonic v1.11.6 // indirect
	github.com/bytedance/sonic/loader v0.1.1 // indirect
	github.com/cespare/xxhash/v2 v2.1.2 // indirect
	github.com/cloudwego/base64x v0.1.4 // indirect
	github.com/cloudwego/iasm v0.2.0 // indirect
	github.com/dgryski/go-rendezvous v0.0.0-20200823014737-9f7001d12a5f // indirect
	github.com/gabriel-vasile/mimetype v1.4.3 // indirect
	github.com/gin-contrib/sse v0.1.0 // indirect
	github.com/go-playground/locales v0.14.1 // indirect
	github.com/go-playground/universal-translator v0.18.1 // indirect
	github.com/go-playground/validator/v10 v10.20.0 // indirect
	github.com/goccy/go-json v0.10.2 // indirect
	github.com/jackc/pgpassfile v1.0.0 // indirect
	github.com/jackc/pgservicefile v0.0.0-20221227161230-091c0ba34f0a // indirect
	github.com/jackc/pgx/v5 v5.4.3 // indirect
	github.com/jinzhu/inflection v1.0.0 // indirect
	github.com/jinzhu/now v1.1.5 // indirect
	github.com/json-iterator/go v1.1.12 // indirect
	github.com/klauspost/cpuid/v2 v2.2.7 // indirect
	github.com/kr/text v0.2.0 // indirect
	github.com/leodido/go-urn v1.4.0 // indirect
	github.com/mattn/go-isatty v0.0.20 // indirect
	github.com/modern-go/concurrent v0.0.0-20180306012644-bacd9c7ef1dd // indirect
	github.com/modern-go/reflect2 v1.0.2 // indirect
	github.com/pelletier/go-toml/v2 v2.2.2 // indirect
	github.com/rogpeppe/go-internal v1.12.0 // indirect
	github.com/twitchyliquid64/golang-asm v0.15.1 // indirect
	github.com/ugorji/go/codec v1.2.12 // indirect
	golang.org/x/arch v0.8.0 // indirect
	golang.org/x/crypto v0.23.0 // indirect
	golang.org/x/net v0.25.0 // indirect
	golang.org/x/sys v0.20.0 // indirect
	golang.org/x/text v0.15.0 // indirect
	google.golang.org/protobuf v1.34.1 // indirect
	gopkg.in/yaml.v3 v3.0.1 // indirect
)
